Clean up result of morphological analyzed data frame — clean_up • moranajp
…
    Examples

data(neko_mecab)
data(neko_ginza)
data(review_sudachi_c)
data(synonym)
synonym <- 
  synonym |> unescape_utf()

neko_mecab <- 
  neko_mecab |>
  unescape_utf() |>
  print()
#> # A tibble: 2,884 × 11
#>    text_id 表層形 品詞   品詞細分類1 品詞細分類2 品詞細分類3 活用型 活用形 原形 
#>      <dbl> <chr>  <chr>  <chr>       <chr>       <chr>       <chr>  <chr>  <chr>
#>  1       1 吾輩   名詞   代名詞      一般        *           *      *      吾輩 
#>  2       1 は     助詞   係助詞      *           *           *      *      は   
#>  3       1 猫     名詞   一般        *           *           *      *      猫   
#>  4       1 で     助動詞 *           *           *           特殊…  連用形 だ   
#>  5       1 ある   助動詞 *           *           *           五段…  基本形 ある 
#>  6       1 。     記号   句点        *           *           *      *      。   
#>  7       1 名前   名詞   一般        *           *           *      *      名前 
#>  8       1 は     助詞   係助詞      *           *           *      *      は   
#>  9       1 まだ   副詞   助詞類接続  *           *           *      *      まだ 
#> 10       1 無い   形容詞 自立        *           *           形容…  基本形 無い 
#> # ℹ 2,874 more rows
#> # ℹ 2 more variables: 読み <chr>, 発音 <chr>

neko_mecab |>
  clean_up(use_common_data = TRUE, synonym_df = synonym)
#> # A tibble: 872 × 11
#>    text_id 表層形  品詞  品詞細分類1 品詞細分類2 品詞細分類3 活用型 活用形 原形 
#>      <dbl> <chr>   <chr> <chr>       <chr>       <chr>       <chr>  <chr>  <chr>
#>  1       1 猫      名詞  一般        *           *           *      *      猫   
#>  2       1 無い    形容… 自立        *           *           形容…  基本形 ない 
#>  3       2 生れ    動詞  自立        *           *           一段   連用形 生れ…
#>  4       2 見当    名詞  サ変接続    *           *           *      *      見当 
#>  5       2 つか    動詞  自立        *           *           五段…  未然形 つく 
#>  6       2 薄暗い  形容… 自立        *           *           形容…  基本形 薄暗…
#>  7       2 し      動詞  自立        *           *           サ変…  連用形 する 
#>  8       2 ニャー… 名詞  一般        *           *           *      *      *    
#>  9       2 泣い    動詞  自立        *           *           五段…  連用…  泣く 
#> 10       2 いた事  名詞  一般        *           *           *      *      いた…
#> # ℹ 862 more rows
#> # ℹ 2 more variables: 読み <chr>, 発音 <chr>

neko_ginza |>
  unescape_utf() |>
  add_sentence_no() |>
  clean_up(add_depend = TRUE, use_common_data = TRUE, synonym_df = synonym)
#> Joining with `by = join_by(係受元_id)`
#> # A tibble: 725 × 17
#>    text_id id    表層形 原形   UD品詞タグ 品詞   品詞細分類1 品詞細分類2 属性 
#>      <dbl> <chr> <chr>  <chr>  <chr>      <chr>  <chr>       <chr>       <chr>
#>  1       1 1_3   猫     猫     NOUN       名詞   普通名詞    一般        _    
#>  2       2 3_3   生れ   生れる VERB       動詞   一般        NA          _    
#>  3       2 3_8   見当   見当   NOUN       名詞   普通名詞    一般        _    
#>  4       2 4_4   薄暗い 薄暗い ADJ        形容詞 一般        NA          _    
#>  5       2 4_11  泣い   泣く   VERB       動詞   一般        NA          _    
#>  6       2 4_18  記憶   記憶   VERB       名詞   普通名詞    サ変可能    _    
#>  7       2 5_7   人間   人間   NOUN       名詞   普通名詞    一般        _    
#>  8       2 5_9   いう   いう   VERB       動詞   一般        NA          _    
#>  9       2 6_4   聞く   聞く   VERB       動詞   一般        NA          _    
#> 10       2 6_8   書生   書生   NOUN       名詞   普通名詞    一般        _    
#> # ℹ 715 more rows
#> # ℹ 8 more variables: 係受元 <chr>, 係受タグ <chr>, 係受ペア <chr>,
#> #   その他 <chr>, sentence <dbl>, word_no <chr>, 係受元_id <chr>,
#> #   原形_dep <chr>

review_sudachi_c |>
  unescape_utf() |>
  add_sentence_no() |>
  clean_up(use_common_data = TRUE, synonym_df = synonym)
#> # A tibble: 7,251 × 13
#>    text_id  chap  sect  para 表層形 品詞  品詞細分類1 品詞細分類2 品詞細分類3
#>      <dbl> <dbl> <dbl> <dbl> <chr>  <chr> <chr>       <chr>       <chr>      
#>  1       1     1     1     1 農地   名詞  普通名詞    一般        *          
#>  2       1     1     1     1 農産物 名詞  普通名詞    一般        *          
#>  3       1     1     1     1 生産   名詞  普通名詞    サ変可能    *          
#>  4       1     1     1     1 機能   名詞  普通名詞    サ変可能    *          
#>  5       1     1     1     1 生物   名詞  普通名詞    一般        *          
#>  6       1     1     1     1 多様性 名詞  普通名詞    一般        *          
#>  7       1     1     1     1 維持   名詞  普通名詞    サ変可能    *          
#>  8       1     1     1     1 機能   名詞  普通名詞    サ変可能    *          
#>  9       1     1     1     1 有し   動詞  一般        *           *          
#> 10       2     1     1     1 農地   名詞  普通名詞    一般        *          
#> # ℹ 7,241 more rows
#> # ℹ 4 more variables: 品詞細分類4 <chr>, 品詞細分類5 <chr>, 原形 <chr>,
#> #   sentence <dbl>
…
