Draw bigram network using morphological analysis data. — draw_bigram_network • moranajp
…
#> $df
#> # A tibble: 1,500 × 2
#>    lemma sentence
#>    <chr>    <int>
#>  1 a            1
#>  2 j            1
#>  3 f            1
#>  4 b            1
#>  5 a            1
#>  6 d            1
#>  7 e            1
#>  8 c            1
#>  9 h            1
#> 10 i            1
#> # ℹ 1,490 more rows
#> 
#> $bigram
#> # A tibble: 264 × 3
#>    word_1 word_2  freq
#>    <chr>  <chr>  <int>
#>  1 b      a         25
#>  2 a      c         22
#>  3 b      d         21
#>  4 e      b         21
#>  5 d      b         20
#>  6 a      a         19
#>  7 b      g         19
#>  8 a      b         18
#>  9 b      c         18
#> 10 c      b         18
#> # ℹ 254 more rows
…
