Analyzed data of review by MeCab — review_mecab • moranajp
…
\u539f\u5f62
result of MeCab

\u8aad\u307f
result of MeCab

\u767a\u97f3
result of MeCab

    Examples

data(review_mecab)
review_mecab |>
  unescape_utf()
#> # A tibble: 19,985 × 14
#>    text_id  chap  sect  para 表層形 品詞   品詞細分類1 品詞細分類2 品詞細分類3
#>      <dbl> <dbl> <dbl> <dbl> <chr>  <chr>  <chr>       <chr>       <chr>      
#>  1       1     1     1     1 農地   名詞   一般        *           *          
#>  2       1     1     1     1 は     助詞   係助詞      *           *          
#>  3       1     1     1     1 農産物 名詞   一般        *           *          
#>  4       1     1     1     1 を     助詞   格助詞      一般        *          
#>  5       1     1     1     1 生産   名詞   サ変接続    *           *          
#>  6       1     1     1     1 する   動詞   自立        *           *          
#>  7       1     1     1     1 機能   名詞   サ変接続    *           *          
#>  8       1     1     1     1 だけ   助詞   副助詞      *           *          
#>  9       1     1     1     1 で     助動詞 *           *           *          
#> 10       1     1     1     1 なく   助動詞 *           *           *          
#> # ℹ 19,975 more rows
#> # ℹ 5 more variables: 活用型 <chr>, 活用形 <chr>, 原形 <chr>, 読み <chr>,
#> #   発音 <chr>
…
